{
  "useCustomJsCallback": {
    "id": "useCustomJsCallback",
    "value": "false"
  },
  "instanceReference": {
    "id": "instanceReference",
    "value": "686487578504841"
  },
  "defaultAutoExpandHeight": {
    "id": "defaultAutoExpandHeight",
    "value": "true"
  },
  "visibility": {
    "id": "visibility",
    "value": "visible",
    "dataType": "OBJECT"
  },
  "$pxblockFutureDates": {
    "id": "$pxblockFutureDates",
    "value": false,
    "dataType": "BOOLEAN"
  },
  "defaultMaxHeight": {
    "id": "defaultMaxHeight",
    "value": "",
    "dataType": "STRING"
  },
  "defaultReferenceName": {
    "id": "defaultReferenceName",
    "value": "pxDatetimePicker",
    "dataType": "STRING"
  },
  "useDataConnector": {
    "id": "useDataConnector",
    "value": "false"
  },
  "$pxshowTimeZone": {
    "id": "$pxshowTimeZone",
    "value": {
      "desc": "none",
      "longDesc": "No value selected",
      "value": "none"
    },
    "dataType": "OBJECT"
  },
  "exportParameters": {
    "id": "exportParameters",
    "value": [
      {
        "CustomField_978485251829985": [
          {
            "fieldName": "{baseName}_Date"
          },
          {
            "requiredField": "0"
          }
        ]
      },
      {
        "CustomField_187485251843890": [
          {
            "fieldName": "{baseName}_DateEpoch"
          },
          {
            "requiredField": "0"
          }
        ]
      }
    ],
    "dataType": "OBJECT"
  },
  "importParameters": {
    "id": "importParameters",
    "value": [
      {
        "CustomField_899485251826348": [
          {
            "fieldName": "{baseName}_Date"
          },
          {
            "requiredField": "0"
          }
        ]
      },
      {
        "CustomField_107485251840818": [
          {
            "fieldName": "{baseName}_DateEpoch"
          },
          {
            "requiredField": "0"
          }
        ]
      }
    ],
    "dataType": "OBJECT"
  },
  "refObjId": {
    "id": "refObjId",
    "value": "0"
  },
  "contrUID": {
    "id": "contrUID",
    "value": "dshEmbedObject"
  },
  "mshPageId": {
    "id": "mshPageId",
    "value": "-1"
  },
  "defaultMinHeight": {
    "id": "defaultMinHeight",
    "value": "50",
    "dataType": "STRING"
  },
  "refObjType": {
    "id": "refObjType",
    "value": "264"
  },
  "defaultMaxWidth": {
    "id": "defaultMaxWidth",
    "value": "",
    "dataType": "STRING"
  },
  "defaultAutoExpandWidth": {
    "id": "defaultAutoExpandWidth",
    "value": "true"
  },
  "$pxblockPastDates": {
    "id": "$pxblockPastDates",
    "value": false,
    "dataType": "BOOLEAN"
  },
  "min-height": {
    "id": "min-height",
    "value": "",
    "dataType": "STRING"
  },
  "$pxhideTime": {
    "id": "$pxhideTime",
    "value": false,
    "dataType": "BOOLEAN"
  },
  "$pxtimeZone": {
    "id": "$pxtimeZone",
    "value": {
      "desc": "AUTO",
      "longDesc": "It will predict based on system tume",
      "value": "AUTO"
    },
    "dataType": "OBJECT"
  },
  "$pxtimeFormat": {
    "id": "$pxtimeFormat",
    "value": "HH:mm A",
    "dataType": "STRING"
  },
  "min-width": {
    "id": "min-width",
    "value": "",
    "dataType": "STRING"
  },
  "owner": {
    "id": "owner",
    "value": ""
  },
  "baseName": {
    "id": "baseName",
    "value": "",
    "dataType": "STRING"
  },
  "defaultMinWidth": {
    "id": "defaultMinWidth",
    "value": "100",
    "dataType": "STRING"
  },
  "sharedLibDeps": {
    "id": "sharedLibDeps",
    "values": []
  },
  "$pxdateFormat": {
    "id": "$pxdateFormat",
    "value": "MM/DD/YYYY",
    "dataType": "STRING"
  }
}